{
  "data": [
    {
      "id": 2182844,
      "check_id": 5,
      "issue_key": "path",
      "issue_value": "/Users/bob/.ssh/id_rsa.do",
      "title": "Unencrypted SSH Key Detected",
      "value": {
        "gid": 10,
        "md5": "6c101ad3928e527a89600ca3b2616",
        "uid": 106,
        "bits": 2048,
        "path": "/Users/bob/.ssh/id_rsa.do",
        "sha256": "84f88e8c66e6ab64d0685835269f472233ea3308163b52fcf386922d5dc",
        "key_type": "ssh-rsa",
        "username": "bob",
        "encrypted": false,
        "created_at": "2022-03-07T07:40:36.451Z",
        "group_name": "staff",
        "updated_at": "2022-03-07T07:40:36.451Z",
        "file_created_at": "2021-05-31T10:06:52.000Z",
        "fingerprint_md5": null,
        "fingerprint_sha256": null
      },
      "ignored": false,
      "escalation_status": "Not Escalated",
      "resolved_at": null,
      "timestamp": "2022-03-07T07:40:48.482Z",
      "first_notified_owner_at": null,
      "grace_period_expiration": "2022-03-07T07:40:48.482Z",
      "device": {
        "id": 87161,
        "name": "Bob-MacBook",
        "owned_by": "organization",
        "privacy": "details_hidden",
        "platform": "darwin",
        "enrolled_at": "2021-12-17T18:20:54.110Z",
        "last_seen_at": "2022-04-06T16:31:42.000Z",
        "operating_system": "macOS 12.3.1 Monterey Build: 21E258",
        "issue_count": 1,
        "resolved_issue_count": 15,
        "failure_count": 1,
        "resolved_failure_count": 15,
        "primary_user_name": "This attribute is DEPRECATED. Primary User is no longer collected.",
        "hardware_model": "MacBook Pro (14-inch, 2021)",
        "hardware_vendor": "Apple Inc.",
        "launcher_version": "0.11.24",
        "osquery_version": "5.1.0",
        "serial": "XQ9Q6CMY",
        "assigned_owner": {
          "id": 265025,
          "owner_type": "Person",
          "name": "Bob John",
          "email": "bob.john@example.com"
        },
        "kolide_mdm": null,
        "note": null,
        "note_html": null,
        "operating_system_details": {
          "device_id": 87161,
          "platform": "darwin",
          "name": "macOS",
          "codename": "Monterey",
          "version": "12.3.1",
          "build": "21E258",
          "major_version": 12,
          "minor_version": 3,
          "patch_version": 1,
          "ubr": null,
          "release_id": null
        },
        "remote_ip": "149.05.2.65",
        "location": null,
        "product_image_url": "https://assets1.kolide.com/assets/inventory/devices/MacBook Pro (14-inch, 2021)-57e6d957a0520ca66e38cd68d5a54fa6c7557dcd.png"
      }
    },
    {
      "id": 32762621,
      "check_id": 1758,
      "issue_key": null,
      "issue_value": null,
      "title": "macOS Automatic Updates Improperly Configured",
      "value": {
        "autoupdate_enabled": "true",
        "autoupdate_managed": "false",
        "install_os_updates": "true",
        "KOLIDE_CHECK_STATUS": "FAIL",
        "install_app_updates": "false",
        "install_security_updates": "true",
        "last_successfully_checked": "2022-04-11 05:30:36",
        "download_available_updates": "true"
      },
      "ignored": false,
      "escalation_status": "Not Escalated",
      "resolved_at": null,
      "timestamp": "2022-03-16T20:37:10.905Z",
      "first_notified_owner_at": null,
      "grace_period_expiration": "2022-03-16T20:37:10.905Z",
      "device": {
        "id": 90151,
        "name": "Daves-MacBook-Pro",
        "owned_by": "organization",
        "privacy": "details_hidden",
        "platform": "darwin",
        "enrolled_at": "2022-01-07T14:26:20.185Z",
        "last_seen_at": "2022-04-06T18:55:12.000Z",
        "operating_system": "macOS 12.2.1 Monterey Build: 21D62",
        "issue_count": 2,
        "resolved_issue_count": 8,
        "failure_count": 2,
        "resolved_failure_count": 8,
        "primary_user_name": "This attribute is DEPRECATED. Primary User is no longer collected.",
        "hardware_model": "MacBook Pro (16-inch, 2021)",
        "hardware_vendor": "Apple Inc.",
        "launcher_version": "0.11.24",
        "osquery_version": "5.1.0",
        "serial": "CDDJHQ",
        "assigned_owner": {
          "id": 21650,
          "owner_type": "Person",
          "name": "Dave Joe",
          "email": "dave.joe@example.com"
        },
        "kolide_mdm": null,
        "note": null,
        "note_html": null,
        "operating_system_details": {
          "device_id": 9015,
          "platform": "darwin",
          "name": "macOS",
          "codename": "Monterey",
          "version": "12.2.1",
          "build": "21D62",
          "major_version": 12,
          "minor_version": 2,
          "patch_version": 1,
          "ubr": null,
          "release_id": null
        },
        "remote_ip": "6.5.37.56",
        "location": null,
        "product_image_url": "https://assets1.kolide.com/assets/inventory/devices/MacBook Pro (16-inch, 2021)-6a6b3020116ffc65ad7a6b1b462d0cd5ac861f69.png"
      }
    }
  ],
  "pagination": {
    "next": "https://api.kolide.com/issues/open?cursor=MjcsMjcp",
    "next_cursor": "MjcsMjcp",
    "current_cursor": "",
    "count": 25
  }
}
